…
5. What is the range of weight for each species included in the study? Remove any observations of weight that are NA so they do not show up in the plot.


```r
deserts %>% 
  filter(weight != "NA") %>% 
  group_by(species) %>% 
  summarise(mean_weight = mean(weight, na.rm = T), min_weight = min(weight,na.rm = T), max_weight = max(weight, na.rm = T))
```

```
## # A tibble: 22 x 4
##    species     mean_weight min_weight max_weight
##  * <chr>             <dbl>      <dbl>      <dbl>
##  1 albigula         159.           30        280
##  2 baileyi           31.7          12         55
##  3 eremicus          21.6           8         40
##  4 flavus             7.92          4         25
##  5 fulvescens        13.4           9         20
##  6 fulviventer       58.9          24        199
##  7 hispidus          65.6          16        140
##  8 intermedius       19.2          17         21
##  9 leucogaster       31.6          10         56
## 10 leucopus          19.1           8         27
## # ... with 12 more rows
```
…
7. [Dipodomys merriami](https://en.wikipedia.org/wiki/Merriam's_kangaroo_rat) is the most frequently sampled animal in the study. How have the number of observations of this species changed over the years included in the study?


```r
deserts %>% 
  select(species, year) %>% 
  filter(species == "merriami") %>% 
  group_by(year) %>% 
  summarise(total_obsv = n())
```

```
## # A tibble: 26 x 2
##     year total_obsv
##  * <dbl>      <int>
##  1  1977        264
##  2  1978        389
##  3  1979        209
##  4  1980        493
##  5  1981        559
##  6  1982        609
##  7  1983        528
##  8  1984        396
##  9  1985        667
## 10  1986        406
## # ... with 16 more rows
```
…
Overplotting is an issue!

9. Which two species have, on average, the highest weight? Once you have identified them, make a new column that is a ratio of `weight` to `hindfoot_length`. Make a plot that shows the range of this new ratio and fill by sex.


```r
deserts %>% 
  group_by(species) %>% 
  summarise(mean_weight = mean(weight, na.rm = T)) %>% 
  arrange(desc(mean_weight))
```

```
## # A tibble: 40 x 2
##    species      mean_weight
##    <chr>              <dbl>
##  1 albigula           159. 
##  2 spectabilis        120. 
##  3 spilosoma           93.5
##  4 hispidus            65.6
##  5 fulviventer         58.9
##  6 ochrognathus        55.4
##  7 ordii               48.9
##  8 merriami            43.2
##  9 baileyi             31.7
## 10 leucogaster         31.6
## # ... with 30 more rows
```
…
