…
**4. Your answer above doesn't tell the whole story since life expectancy varies by region. Make a summary that shows the min, mean, and max life expectancy by continent for all years represented in the data.**


```r
gapminder_tidy %>% 
  group_by(continent, year) %>% 
  summarise(mean_le = mean(life_exp), min_le = min(life_exp), max_le = max(life_exp))
```

```
## `summarise()` has grouped output by 'continent'. You can override using the `.groups` argument.
```

```
## # A tibble: 60 x 5
## # Groups:   continent [5]
##    continent year  mean_le min_le max_le
##    <fct>     <fct>   <dbl>  <dbl>  <dbl>
##  1 Africa    1952     39.1   30     52.7
##  2 Africa    1957     41.3   31.6   58.1
##  3 Africa    1962     43.3   32.8   60.2
##  4 Africa    1967     45.3   34.1   61.6
##  5 Africa    1972     47.5   35.4   64.3
##  6 Africa    1977     49.6   36.8   67.1
##  7 Africa    1982     51.6   38.4   69.9
##  8 Africa    1987     53.3   39.9   71.9
##  9 Africa    1992     53.6   23.6   73.6
## 10 Africa    1997     53.6   36.1   74.8
## # ... with 50 more rows
```
…
**5. How has life expectancy changed between 1952-2007 for each continent?**


```r
gapminder_tidy %>%
  group_by(continent, year) %>% 
  summarise(mean_life_exp = mean(life_exp))
```

```
## `summarise()` has grouped output by 'continent'. You can override using the `.groups` argument.
```

```
## # A tibble: 60 x 3
## # Groups:   continent [5]
##    continent year  mean_life_exp
##    <fct>     <fct>         <dbl>
##  1 Africa    1952           39.1
##  2 Africa    1957           41.3
##  3 Africa    1962           43.3
##  4 Africa    1967           45.3
##  5 Africa    1972           47.5
##  6 Africa    1977           49.6
##  7 Africa    1982           51.6
##  8 Africa    1987           53.3
##  9 Africa    1992           53.6
## 10 Africa    1997           53.6
## # ... with 50 more rows
```
…
**7. Which countries have had the largest population growth since 1952?**


```r
gapminder_wide <- gapminder_tidy %>% 
  select(country, year, pop) %>% 
  filter(year == "1952" | year == "2007") %>% 
  pivot_wider(names_from = year, values_from = "pop" ) %>% 
  rename(beginning = "1952", end = "2007")
gapminder_wide
```

```
## # A tibble: 142 x 3
##    country     beginning       end
##    <fct>           <int>     <int>
##  1 Afghanistan   8425333  31889923
##  2 Albania       1282697   3600523
##  3 Algeria       9279525  33333216
##  4 Angola        4232095  12420476
##  5 Argentina    17876956  40301927
##  6 Australia     8691212  20434176
##  7 Austria       6927772   8199783
##  8 Bahrain        120447    708573
##  9 Bangladesh   46886859 150448339
## 10 Belgium       8730405  10392226
## # ... with 132 more rows
```


```r
gapminder_pop_growth <- gapminder_wide %>% 
  mutate(pop_growth = end - beginning) %>% 
  arrange(desc(pop_growth))
gapminder_pop_growth
```

```
## # A tibble: 142 x 4
##    country       beginning        end pop_growth
##    <fct>             <int>      <int>      <int>
##  1 China         556263527 1318683096  762419569
##  2 India         372000000 1110396331  738396331
##  3 United States 157553000  301139947  143586947
##  4 Indonesia      82052000  223547000  141495000
##  5 Brazil         56602560  190010647  133408087
##  6 Pakistan       41346560  169270617  127924057
##  7 Bangladesh     46886859  150448339  103561480
##  8 Nigeria        33119096  135031164  101912068
##  9 Mexico         30144317  108700891   78556574
## 10 Philippines    22438691   91077287   68638596
## # ... with 132 more rows
```
…
**9. How does per-capita GDP growth compare between these same five countries?**


```r
gapminder_gdp_wide <- gapminder_tidy %>% 
  select(country, year, gdp_percap) %>% 
  filter(year == "1952" | year == "2007") %>% 
  pivot_wider(names_from = "year", values_from = "gdp_percap" ) %>% 
  rename(beginning = "1952", end = "2007")
gapminder_gdp_wide
```

```
## # A tibble: 142 x 3
##    country     beginning    end
##    <fct>           <dbl>  <dbl>
##  1 Afghanistan      779.   975.
##  2 Albania         1601.  5937.
##  3 Algeria         2449.  6223.
##  4 Angola          3521.  4797.
##  5 Argentina       5911. 12779.
##  6 Australia      10040. 34435.
##  7 Austria         6137. 36126.
##  8 Bahrain         9867. 29796.
##  9 Bangladesh       684.  1391.
## 10 Belgium         8343. 33693.
## # ... with 132 more rows
```


```r
gapminder_gdp_growth <- gapminder_gdp_wide %>% 
  mutate(gdp_growth = end - beginning) %>% 
  arrange(desc(gdp_growth))
gapminder_gdp_growth
```

```
## # A tibble: 142 x 4
##    country          beginning    end gdp_growth
##    <fct>                <dbl>  <dbl>      <dbl>
##  1 Singapore            2315. 47143.     44828.
##  2 Norway              10095. 49357.     39262.
##  3 Hong Kong, China     3054. 39725.     36671.
##  4 Ireland              5210. 40676.     35466.
##  5 Austria              6137. 36126.     29989.
##  6 United States       13990. 42952.     28961.
##  7 Iceland              7268. 36181.     28913.
##  8 Japan                3217. 31656.     28439.
##  9 Netherlands          8942. 36798.     27856.
## 10 Taiwan               1207. 28718.     27511.
## # ... with 132 more rows
```
…
