…
```
##  [1] "name"         "genus"        "vore"         "order"        "conservation"
##  [6] "sleep_total"  "sleep_rem"    "sleep_cycle"  "awake"        "brainwt"     
## [11] "bodywt"
```

6. How many herbivores are represented in the data?  

```r
herbivores <- subset(sleep, vore=="herbi")
herbivores
```

```
## # A tibble: 32 x 11
##    name  genus vore  order conservation sleep_total sleep_rem sleep_cycle awake
##    <chr> <chr> <chr> <chr> <chr>              <dbl>     <dbl>       <dbl> <dbl>
##  1 Moun~ Aplo~ herbi Rode~ nt                  14.4       2.4      NA       9.6
##  2 Cow   Bos   herbi Arti~ domesticated         4         0.7       0.667  20  
##  3 Thre~ Brad~ herbi Pilo~ <NA>                14.4       2.2       0.767   9.6
##  4 Roe ~ Capr~ herbi Arti~ lc                   3        NA        NA      21  
##  5 Goat  Capri herbi Arti~ lc                   5.3       0.6      NA      18.7
##  6 Guin~ Cavis herbi Rode~ domesticated         9.4       0.8       0.217  14.6
##  7 Chin~ Chin~ herbi Rode~ domesticated        12.5       1.5       0.117  11.5
##  8 Tree~ Dend~ herbi Hyra~ lc                   5.3       0.5      NA      18.7
##  9 Asia~ Elep~ herbi Prob~ en                   3.9      NA        NA      20.1
## 10 Horse Equus herbi Peri~ domesticated         2.9       0.6       1      21.1
## # ... with 22 more rows, and 2 more variables: brainwt <dbl>, bodywt <dbl>
```
…
